{
  "type": "service_account",
  "project_id": "smooth-grid-332511",
  "private_key_id": "31173c696625f23e840f7858a5ba5441fbe6461d",
  "private_key": "-----BEGIN PRIVATE KEY-----\nMIIEvQIBADANBgkqhkiG9w0BAQEFAASCBKcwggSjAgEAAoIBAQCmidtDfCNn+vVJ\ny1gJr8gp0HKEBrV6Cx/shjdlMyoMq6DBQutkhkQDhLZ7Jo+MT+3Q+ypt9e3aHv2H\nAVaKPt9Vs8FUX98lXPbAA7abm8y+Z10IDiHP+MjwGX842phnUeCd1PGgP5iRcHVe\nfoSl6HcOFwneJZccaPVQPk4gO4EF6ap07HoouA3rTgztuT90Al7iMTOmqQ0EmvuE\no1acVWDBqLlmCDzXyLlSvJD15jIBJmK3kV24FfqPrSevVbo7esE0FmTQ8iFtBNkM\nRYL9kGk9b+lxn4NBM6dQh9kCF93ZrXyOlPJX05jR6h/V2o5u/mR2Mn7afBmuB7aH\nAbQSmcYnAgMBAAECggEACTM/cjR27kUebOO3at2TpL+3u9R1DRd1PYdSoxwW/Bk1\nKcgNIgIK2tjnjdkdAAbgX/WoK+f0qmKg5ebshXmgs+bYzNT5CmLe3M+3tFQAlRo3\nuPyy4H7hduYpsZXd6oNK8d00NgKdZpd8XGqH4HR9s0ERkfyoovCncLXocf5ni9B8\nagbVagIOtxpM5ywz6b2/B064LhXmLew1RQ4SBgwBApqKNMqFj1fmMQUlx+u+pVCo\nBftx2PdpBBoQ2OIvY1CwEgAzCIRO3Mo886n1xvUmi8zCbO+9ZG7jNiuU2UtLXHMI\nlFwor24nxtrNvn4RCWjV8U31IG5jA1OEnErjDSIByQKBgQDiOcfhTT+7W1HUFVUD\ne94jrBbLizmHteTuODmuPvZ6KMdehwZj/fcPd+aLneguKdF+FVaFbIv90w95iahk\nqCwUFMdrbsbd1pddb6TZnM0HHv8TPYNPSs1jnmzqAfz1AmJBZuPxGnmvv0+JuBdP\ndbxEao9texwc4p+yIuwNKj9f+QKBgQC8dQkhjEdORfPOra0X4GhW/vfm3aqLJ0yT\noD+41N22XczBw45kA8CDpIIIhVCG7i83h5M1CRcWVRfMIZLev/RRpcbkr5siIrTG\ndrLfi+aGbmPzrNVLY98qadIIJWTJ9aKf7BE8YYek6LQR3th02u7ydsRydpD+DWAI\nFMkD2j4fHwKBgQDGhVwRK3/9AyMo0Nt8piuG9FJAplmC7S0Lm42KijgzdSuXmTgT\ncV9oVJic9qI0OIBde44kod+ri5at2g5K3oVnzeA+N8UOEW1dEkcArCgD0sCWesmL\nQKJChFkhdUMtIr1klUz8XHZisqiyuzjBgxkGlNhug7Vk576qTRkGaIeayQKBgFB7\nWs7s7XbMAPb+zLEpsOWWNaBugeqzecyB3zS8E4NSQ6NsNF8aCxktJCsnY+B7z8ZT\nK9a2bxmmdWdD30kpiNllhq8bH5FQaQtonbNCN8ypUB48bUqo+CFQ19WKwqRNNoo9\nco7qx9bxWhVXqfEdnnYFqpeHcxxL8fsBhWcTyPvZAoGAOzYeCNEUaFqw9XIDxJyr\nzyIf12Xjw93+ebPiwkwWf8PIyiAY2FSnq6Ntbr4/XsCdYg6oKeC/uSr1LSJ2SQIw\nUloQV10yQkGzPgolVFCVQGK3iM9j+EJgMB1Xaov7NydojBILL2u2fPDjpDmoG/Z0\n4/PoxsKNHCI4WSWUZN5tvU4=\n-----END PRIVATE KEY-----\n",
  "client_email": "202220346123-compute@developer.gserviceaccount.com",
  "client_id": "103197042034161284683",
  "auth_uri": "https://accounts.google.com/o/oauth2/auth",
  "token_uri": "https://oauth2.googleapis.com/token",
  "auth_provider_x509_cert_url": "https://www.googleapis.com/oauth2/v1/certs",
  "client_x509_cert_url": "https://www.googleapis.com/robot/v1/metadata/x509/202220346123-compute%40developer.gserviceaccount.com"
}
