I, [2021-12-01T19:17:22.546008 #42382]  INFO -- : Registered expected interaction GET /
D, [2021-12-01T19:17:22.546230 #42382] DEBUG -- : {
  "description": "All todo items",
  "request": {
    "method": "GET",
    "path": "/"
  },
  "response": {
    "status": 200,
    "headers": {
    },
    "body": {
      "todos": [
        {
          "_id": "1",
          "todo": "buy meat",
          "_v": 0
        },
        {
          "_id": "2",
          "todo": "buy milk",
          "_v": 0
        },
        {
          "_id": "3",
          "todo": "clear house",
          "_v": 0
        }
      ]
    }
  },
  "metadata": null
}
I, [2021-12-01T19:17:22.553324 #42382]  INFO -- : Received request GET /
D, [2021-12-01T19:17:22.553434 #42382] DEBUG -- : {
  "path": "/",
  "query": "",
  "method": "get",
  "headers": {
    "Accept": "application/json, text/plain, */*",
    "User-Agent": "axios/0.24.0",
    "Host": "localhost:4001",
    "Connection": "close",
    "Version": "HTTP/1.1"
  }
}
I, [2021-12-01T19:17:22.553637 #42382]  INFO -- : Found matching response for GET /
D, [2021-12-01T19:17:22.553747 #42382] DEBUG -- : {
  "status": 200,
  "headers": {
  },
  "body": {
    "todos": [
      {
        "_id": "1",
        "todo": "buy meat",
        "_v": 0
      },
      {
        "_id": "2",
        "todo": "buy milk",
        "_v": 0
      },
      {
        "_id": "3",
        "todo": "clear house",
        "_v": 0
      }
    ]
  }
}
I, [2021-12-01T19:17:22.559410 #42382]  INFO -- : Registered expected interaction POST /
D, [2021-12-01T19:17:22.559506 #42382] DEBUG -- : {
  "description": "Post a new todo",
  "request": {
    "method": "POST",
    "path": "/",
    "body": {
      "todo": "study atleast 4 hour"
    }
  },
  "response": {
    "status": 201,
    "headers": {
    }
  },
  "metadata": null
}
I, [2021-12-01T19:17:22.563631 #42382]  INFO -- : Received request POST /
D, [2021-12-01T19:17:22.563774 #42382] DEBUG -- : {
  "path": "/",
  "query": "",
  "method": "post",
  "body": {
    "todo": "study atleast 4 hour"
  },
  "headers": {
    "Content-Length": "31",
    "Content-Type": "application/json",
    "Accept": "application/json, text/plain, */*",
    "User-Agent": "axios/0.24.0",
    "Host": "localhost:4001",
    "Connection": "close",
    "Version": "HTTP/1.1"
  }
}
I, [2021-12-01T19:17:22.564485 #42382]  INFO -- : Found matching response for POST /
D, [2021-12-01T19:17:22.564595 #42382] DEBUG -- : {
  "status": 201,
  "headers": {
  }
}
I, [2021-12-01T19:17:22.566772 #42382]  INFO -- : Updating pact for todo-app-backend at /home/ehilmi/developer/Skydome_Todo_assigment/frontend/pacts/todo-app-frontend-todo-app-backend.json
I, [2021-12-01T19:17:22.567546 #42382]  INFO -- : *****************************************************************************
I, [2021-12-01T19:17:22.567631 #42382]  INFO -- : Updating existing file ./home/ehilmi/developer/Skydome_Todo_assigment/frontend/pacts/todo-app-frontend-todo-app-backend.json as pactfile_write_mode is :update
I, [2021-12-01T19:17:22.567710 #42382]  INFO -- : Only interactions defined in this test run will be updated.
I, [2021-12-01T19:17:22.567790 #42382]  INFO -- : As interactions are identified by description and provider state, pleased note that if either of these have changed, the old interactions won't be removed from the pact file until the specs are next run with :pactfile_write_mode => :overwrite.
I, [2021-12-01T19:17:22.567823 #42382]  INFO -- : *****************************************************************************
